<?xml version="1.0" encoding="UTF-8" standalone="no"?>
<!-- Created with Inkscape (http://www.inkscape.org/) -->

<svg
   xmlns:dc="http://purl.org/dc/elements/1.1/"
   xmlns:cc="http://creativecommons.org/ns#"
   xmlns:rdf="http://www.w3.org/1999/02/22-rdf-syntax-ns#"
   xmlns:svg="http://www.w3.org/2000/svg"
   xmlns="http://www.w3.org/2000/svg"
   xmlns:xlink="http://www.w3.org/1999/xlink"
   xmlns:sodipodi="http://sodipodi.sourceforge.net/DTD/sodipodi-0.dtd"
   xmlns:inkscape="http://www.inkscape.org/namespaces/inkscape"
   width="9.729167in"
   height="4.1190476in"
   viewBox="0 0 247.12084 104.62381"
   version="1.1"
   id="svg8"
   inkscape:version="0.92.1 r15371"
   sodipodi:docname="teclado.svg">
  <defs
     id="defs2" />
  <sodipodi:namedview
     id="base"
     pagecolor="#ffffff"
     bordercolor="#666666"
     borderopacity="1.0"
     inkscape:pageopacity="0.0"
     inkscape:pageshadow="2"
     inkscape:zoom="0.49497475"
     inkscape:cx="601.84419"
     inkscape:cy="214.84818"
     inkscape:document-units="mm"
     inkscape:current-layer="layer1"
     showgrid="false"
     units="in"
     inkscape:window-width="1366"
     inkscape:window-height="709"
     inkscape:window-x="0"
     inkscape:window-y="0"
     inkscape:window-maximized="1"
     fit-margin-top="0"
     fit-margin-left="0"
     fit-margin-right="0"
     fit-margin-bottom="0" />
  <metadata
     id="metadata5">
    <rdf:RDF>
      <cc:Work
         rdf:about="">
        <dc:format>image/svg+xml</dc:format>
        <dc:type
           rdf:resource="http://purl.org/dc/dcmitype/StillImage" />
        <dc:title></dc:title>
      </cc:Work>
    </rdf:RDF>
  </metadata>
  <g
     inkscape:label="Capa 1"
     inkscape:groupmode="layer"
     id="layer1"
     transform="translate(-5.8964286,-122.22379)">
    <image
       sodipodi:absref="/home/david/Documentos/PedagogiasNomades/encuentro2/taller_documentacion/layout.png"
       xlink:href="layout.png"
       width="191.18036"
       height="72.720924"
       preserveAspectRatio="none"
       id="image72"
       x="36.134518"
       y="128.64941" />
    <rect
       style="opacity:1;fill:#ffb380;fill-opacity:1;stroke:#ffedac;stroke-width:1.05833328;stroke-miterlimit:4;stroke-dasharray:none;stroke-dashoffset:0;stroke-opacity:1"
       id="rect75"
       width="22.300594"
       height="17.386906"
       x="6.4255953"
       y="124.64285" />
    <rect
       y="150.72321"
       x="6.4255953"
       height="17.386906"
       width="22.300594"
       id="rect77"
       style="opacity:1;fill:#ffb380;fill-opacity:1;stroke:#ffedac;stroke-width:1.05833328;stroke-miterlimit:4;stroke-dasharray:none;stroke-dashoffset:0;stroke-opacity:1" />
    <rect
       style="opacity:1;fill:#ffb380;fill-opacity:1;stroke:#ffedac;stroke-width:1.05833328;stroke-miterlimit:4;stroke-dasharray:none;stroke-dashoffset:0;stroke-opacity:1"
       id="rect79"
       width="22.300594"
       height="17.386906"
       x="6.4255953"
       y="176.42558" />
    <rect
       y="208.93153"
       x="6.4255953"
       height="17.386906"
       width="22.300594"
       id="rect81"
       style="opacity:1;fill:#ffb380;fill-opacity:1;stroke:#ffedac;stroke-width:1.05833328;stroke-miterlimit:4;stroke-dasharray:none;stroke-dashoffset:0;stroke-opacity:1" />
    <rect
       style="opacity:1;fill:#ffb380;fill-opacity:1;stroke:#ffedac;stroke-width:1.05833328;stroke-miterlimit:4;stroke-dasharray:none;stroke-dashoffset:0;stroke-opacity:1"
       id="rect83"
       width="22.300594"
       height="17.386906"
       x="69.16964"
       y="208.93153" />
    <rect
       y="208.93153"
       x="122.46428"
       height="17.386906"
       width="22.300594"
       id="rect85"
       style="opacity:1;fill:#ffb380;fill-opacity:1;stroke:#ffedac;stroke-width:1.05833328;stroke-miterlimit:4;stroke-dasharray:none;stroke-dashoffset:0;stroke-opacity:1" />
    <rect
       style="opacity:1;fill:#ffb380;fill-opacity:1;stroke:#ffedac;stroke-width:1.05833328;stroke-miterlimit:4;stroke-dasharray:none;stroke-dashoffset:0;stroke-opacity:1"
       id="rect87"
       width="22.300594"
       height="17.386906"
       x="176.1369"
       y="208.93153" />
    <rect
       y="148.45534"
       x="230.1875"
       height="17.386906"
       width="22.300594"
       id="rect89"
       style="opacity:1;fill:#ffb380;fill-opacity:1;stroke:#ffedac;stroke-width:1.05833328;stroke-miterlimit:4;stroke-dasharray:none;stroke-dashoffset:0;stroke-opacity:1" />
    <rect
       style="opacity:1;fill:#ffb380;fill-opacity:1;stroke:#ffedac;stroke-width:1.05833328;stroke-miterlimit:4;stroke-dasharray:none;stroke-dashoffset:0;stroke-opacity:1"
       id="rect91"
       width="22.300594"
       height="17.386906"
       x="230.1875"
       y="122.75296" />
    <text
       xml:space="preserve"
       style="font-style:normal;font-weight:normal;font-size:9.14143085px;line-height:1.25;font-family:sans-serif;letter-spacing:0px;word-spacing:0px;fill:#000000;fill-opacity:1;stroke:none;stroke-width:0.22853577"
       x="9.4451799"
       y="137.19885"
       id="text95"><tspan
         sodipodi:role="line"
         id="tspan93"
         x="9.4451799"
         y="137.19885"
         style="stroke-width:0.22853577">TAB</tspan></text>
    <text
       id="text99"
       y="158.12804"
       x="9.8420296"
       style="font-style:normal;font-weight:normal;font-size:5.09790039px;line-height:1.25;font-family:sans-serif;letter-spacing:0px;word-spacing:0px;fill:#000000;fill-opacity:1;stroke:none;stroke-width:0.12744752"
       xml:space="preserve"><tspan
         style="stroke-width:0.12744752"
         y="158.12804"
         x="9.8420296"
         sodipodi:role="line"
         id="tspan101">BLOQ </tspan><tspan
         style="stroke-width:0.12744752"
         y="164.50041"
         x="9.8420296"
         sodipodi:role="line"
         id="tspan105">MAYS</tspan></text>
    <text
       id="text109"
       y="189.05649"
       x="14.736842"
       style="font-style:normal;font-weight:normal;font-size:9.14143085px;line-height:1.25;font-family:sans-serif;letter-spacing:0px;word-spacing:0px;fill:#000000;fill-opacity:1;stroke:none;stroke-width:0.22853577"
       xml:space="preserve"><tspan
         style="stroke-width:0.22853577"
         y="189.05649"
         x="14.736842"
         id="tspan107"
         sodipodi:role="line">S</tspan></text>
    <text
       xml:space="preserve"
       style="font-style:normal;font-weight:normal;font-size:9.14143085px;line-height:1.25;font-family:sans-serif;letter-spacing:0px;word-spacing:0px;fill:#000000;fill-opacity:1;stroke:none;stroke-width:0.22853577"
       x="14.736842"
       y="220.80606"
       id="text113"><tspan
         sodipodi:role="line"
         id="tspan111"
         x="14.736842"
         y="220.80606"
         style="stroke-width:0.22853577">C</tspan></text>
    <text
       id="text117"
       y="220.80606"
       x="77.707733"
       style="font-style:normal;font-weight:normal;font-size:9.14143085px;line-height:1.25;font-family:sans-serif;letter-spacing:0px;word-spacing:0px;fill:#000000;fill-opacity:1;stroke:none;stroke-width:0.22853577"
       xml:space="preserve"><tspan
         style="stroke-width:0.22853577"
         y="220.80606"
         x="77.707733"
         id="tspan115"
         sodipodi:role="line">M</tspan></text>
    <text
       xml:space="preserve"
       style="font-style:normal;font-weight:normal;font-size:9.05735588px;line-height:1.25;font-family:sans-serif;letter-spacing:0px;word-spacing:0px;fill:#000000;fill-opacity:1;stroke:none;stroke-width:0.22643389"
       x="125.71726"
       y="219.73817"
       id="text121"><tspan
         sodipodi:role="line"
         id="tspan119"
         x="125.71726"
         y="219.73817"
         style="stroke-width:0.22643389">SPS</tspan></text>
    <text
       id="text125"
       y="219.33459"
       x="179.104"
       style="font-style:normal;font-weight:normal;font-size:6.23554373px;line-height:1.25;font-family:sans-serif;letter-spacing:0px;word-spacing:0px;fill:#000000;fill-opacity:1;stroke:none;stroke-width:0.15588859"
       xml:space="preserve"><tspan
         style="stroke-width:0.15588859"
         y="219.33459"
         x="179.104"
         id="tspan123"
         sodipodi:role="line">M_GR</tspan></text>
    <text
       xml:space="preserve"
       style="font-style:normal;font-weight:normal;font-size:10.58333302px;line-height:1.25;font-family:sans-serif;letter-spacing:0px;word-spacing:0px;fill:#000000;fill-opacity:1;stroke:none;stroke-width:0.26458332"
       x="231.98996"
       y="160.69254"
       id="text129"><tspan
         sodipodi:role="line"
         id="tspan127"
         x="231.98996"
         y="160.69254"
         style="stroke-width:0.26458332">RTR</tspan></text>
    <text
       id="text133"
       y="129.7944"
       x="232.98956"
       style="font-style:normal;font-weight:normal;font-size:5.30883741px;line-height:1.25;font-family:sans-serif;letter-spacing:0px;word-spacing:0px;fill:#000000;fill-opacity:1;stroke:none;stroke-width:0.13272093"
       xml:space="preserve"><tspan
         style="stroke-width:0.13272093"
         y="129.7944"
         x="232.98956"
         id="tspan131"
         sodipodi:role="line">BACK </tspan><tspan
         style="stroke-width:0.13272093"
         y="136.43045"
         x="232.98956"
         sodipodi:role="line"
         id="tspan135">SPACE</tspan></text>
  </g>
</svg>
